module zerlaer.me/blog

go 1.20

require (
	github.com/go-sql-driver/mysql v1.7.1 // indirect
	github.com/jinzhu/inflection v1.0.0 // indirect
	github.com/jinzhu/now v1.1.5 // indirect
	github.com/sirupsen/logrus v1.9.3 // indirect
	golang.org/x/sys v0.0.0-20220715151400-c0bba94af5f8 // indirect
	gopkg.in/yaml.v2 v2.4.0 // indirect
	gorm.io/driver/mysql v1.5.1 // indirect
	gorm.io/gorm v1.25.2 // indirect
)
